HW 8
…
We will analyze some data from a famous case of alleged gender discrimination in admission to graduate programs at UC Berkeley in 1973. The three variables are Admit (Admitted, Rejected), Gender (Male, Female), and Dept (Departments A, B, C, D, E, F). First, create a dichotomous outcome variable \(y\) that is 1 if Admit==“Admitted” and 0 otherwise.

1.1 (2 pts)

Predict \(y\) from Gender using a logistic regression. Is the effect significant? Interpret the effect: what is the odds ratio for admission to graduate school for women compared to men? Compute the predicted probability of admission for women and for men.

library(tidyverse)
adm <- read_csv("http://www.nathanielwoodward.com/admissions.csv")

# your code here
adm <- adm %>% mutate(y = ifelse(Admit == "Admitted", 
    1, 0))
adm

## # A tibble: 4,526 x 4
##    Admit    Gender Dept      y
##    <chr>    <chr>  <chr> <dbl>
##  1 Admitted Male   A         1
##  2 Admitted Male   A         1
##  3 Admitted Male   A         1
##  4 Admitted Male   A         1
##  5 Admitted Male   A         1
##  6 Admitted Male   A         1
##  7 Admitted Male   A         1
##  8 Admitted Male   A         1
##  9 Admitted Male   A         1
## 10 Admitted Male   A         1
## # … with 4,516 more rows
…
## Code to get you started on 2d
starwars_new <- bind_rows(mutate(starwars1, mass_c = 0), 
    mutate(starwars1, mass_c = sd(mass)), mutate(starwars1, 
        mass_c = -sd(mass)))

starwars_new <- starwars_new %>% mutate(mass_cat = c(rep("mean", 
    nrow(starwars1)), rep("mean+1sd", nrow(starwars1)), 
    rep("mean-1sd", nrow(starwars1))))

# your code here
starwars_new$probabilities <- predict(fit7, newdata = starwars_new, 
    type = "response")
starwars_new

## # A tibble: 174 x 8
##     mass height species     y mass_c height_c mass_cat probabilities
##    <dbl>  <int> <chr>   <dbl>  <dbl>    <dbl> <chr>            <dbl>
##  1    77    172 Human       1      0    -1.95 mean             0.525
##  2    75    167 Droid       0      0    -6.95 mean             0.564
##  3    32     96 Droid       0      0   -77.9  mean             0.925
##  4   136    202 Human       1      0    28.1  mean             0.298
##  5    49    150 Human       1      0   -23.9  mean             0.690
##  6   120    178 Human       1      0     4.05 mean             0.477
##  7    75    165 Human       1      0    -8.95 mean             0.580
##  8    32     97 Droid       0      0   -76.9  mean             0.923
##  9    84    183 Human       1      0     9.05 mean             0.438
## 10    77    182 Human       1      0     8.05 mean             0.445
## # … with 164 more rows
…
