Project 1
…
Using the group_by function, I grouped my data by Month. In order to do that, I first had to separate the month variable into “month”, “day” and, “year”. After that I made a new column called “month2” in which I recoded the month column so that “1” was equal to “January” and “2” was equal to “February”. After that I grouped the data by Month2.

#group_by function 
Joined_Fitness_Data %>% separate(Date,into=c("Month", "Day", "Year")) %>% 
  mutate(Month2 = recode_factor(Month, `1`="January", `2`="Ferbruary")) %>%
  group_by(Month2)

## # A tibble: 50 x 9
## # Groups:   Month2 [2]
##    Month Day   Year  Cal_burned Hrs_stood Steps Dist_walked Avg_Temp Month2 
##    <chr> <chr> <chr>      <int>     <int> <int>       <dbl>    <dbl> <fct>  
##  1 1     1     21           145         7  2937         1.3     42.1 January
##  2 1     2     21           103         5  1232         6       47.1 January
##  3 1     3     21           506        10 10975         6.1     51.6 January
##  4 1     4     21           343        14  9554         4.4     54.2 January
##  5 1     5     21           569        10 11417         6       59   January
##  6 1     6     21           273        10  6696         3.1     62.1 January
##  7 1     7     21           520        12 15247         7       50.5 January
##  8 1     8     21           291        11  4997         2.4     43.1 January
##  9 1     9     21           165         9  3375         1.5     42.1 January
## 10 1     12    21           238        12  4306         1.9     37.8 January
## # … with 40 more rows
…
After computing the summary statistics for the overall data, I grouped the data by month and computed the mean, standard deviation, min, max, and variance for each numeric variable. I used pivot_longer and pivot_wider in the same way as before to make the results easier to read.

After computing the summary statistics that were grouped by month, the results showed that I burned more calories, stood for more hours per day, walked a greater distance, and had more daily steps in January than in February.

Question 4

Correlation heatmap

cormat <- Joined_Fitness_Data %>% select_if(is.numeric) %>% cor(use="pair")

tidycor <- cormat %>% as.data.frame %>% rownames_to_column("var1") %>% pivot_longer(-1,names_to="var2",values_to="correlation")
tidycor

## # A tibble: 25 x 3
##    var1       var2        correlation
##    <chr>      <chr>             <dbl>
##  1 Cal_burned Cal_burned        1    
##  2 Cal_burned Hrs_stood         0.505
##  3 Cal_burned Steps             0.932
##  4 Cal_burned Dist_walked       0.818
##  5 Cal_burned Avg_Temp          0.355
##  6 Hrs_stood  Cal_burned        0.505
##  7 Hrs_stood  Hrs_stood         1    
##  8 Hrs_stood  Steps             0.397
##  9 Hrs_stood  Dist_walked       0.195
## 10 Hrs_stood  Avg_Temp          0.444
## # … with 15 more rows
…
